:10000000000102030405060708090A0B0C0D0E0F78
:10001000101112131415161718191A1B1C1D1E1F68
:10002000202122232425262728292A2B2C2D2E2F58
:10003000303132333435363738393A3B3C3D3E3F48
:10004000404142434445464748494A4B4C4D4E4F38
:10005000505152535455565758595A5B5C5D5E5F28
:10006000606162636465666768696A6B6C6D6E6F18
:10007000707172737475767778797A7B7C7D7E7F08
:00000001FF
