%!PS-Adobe-3.0 EPSF-3.0
%%Creator: cairo 1.16.0 (https://cairographics.org)
%%CreationDate: Sun Apr  5 00:40:45 2020
%%Pages: 1
%%DocumentData: Clean7Bit
%%LanguageLevel: 2
%%BoundingBox: 52 2 316 380
%%EndComments
%%BeginProlog
50 dict begin
/q { gsave } bind def
/Q { grestore } bind def
/cm { 6 array astore concat } bind def
/w { setlinewidth } bind def
/J { setlinecap } bind def
/j { setlinejoin } bind def
/M { setmiterlimit } bind def
/d { setdash } bind def
/m { moveto } bind def
/l { lineto } bind def
/c { curveto } bind def
/h { closepath } bind def
/re { exch dup neg 3 1 roll 5 3 roll moveto 0 rlineto
      0 exch rlineto 0 rlineto closepath } bind def
/S { stroke } bind def
/f { fill } bind def
/f* { eofill } bind def
/n { newpath } bind def
/W { clip } bind def
/W* { eoclip } bind def
/BT { } bind def
/ET { } bind def
/BDC { mark 3 1 roll /BDC pdfmark } bind def
/EMC { mark /EMC pdfmark } bind def
/cairo_store_point { /cairo_point_y exch def /cairo_point_x exch def } def
/Tj { show currentpoint cairo_store_point } bind def
/TJ {
  {
    dup
    type /stringtype eq
    { show } { -0.001 mul 0 cairo_font_matrix dtransform rmoveto } ifelse
  } forall
  currentpoint cairo_store_point
} bind def
/cairo_selectfont { cairo_font_matrix aload pop pop pop 0 0 6 array astore
    cairo_font exch selectfont cairo_point_x cairo_point_y moveto } bind def
/Tf { pop /cairo_font exch def /cairo_font_matrix where
      { pop cairo_selectfont } if } bind def
/Td { matrix translate cairo_font_matrix matrix concatmatrix dup
      /cairo_font_matrix exch def dup 4 get exch 5 get cairo_store_point
      /cairo_font where { pop cairo_selectfont } if } bind def
/Tm { 2 copy 8 2 roll 6 array astore /cairo_font_matrix exch def
      cairo_store_point /cairo_font where { pop cairo_selectfont } if } bind def
/g { setgray } bind def
/rg { setrgbcolor } bind def
/d1 { setcachedevice } bind def
/cairo_data_source {
  CairoDataIndex CairoData length lt
    { CairoData CairoDataIndex get /CairoDataIndex CairoDataIndex 1 add def }
    { () } ifelse
} def
/cairo_flush_ascii85_file { cairo_ascii85_file status { cairo_ascii85_file flushfile } if } def
/cairo_image { image cairo_flush_ascii85_file } def
/cairo_imagemask { imagemask cairo_flush_ascii85_file } def
%%EndProlog
%%BeginSetup
%%EndSetup
%%Page: 1 1
%%BeginPageSetup
%%PageBoundingBox: 52 2 316 380
%%EndPageSetup
q 52 2 264 378 rectclip
1 0 0 -1 0 384 cm q
0.00392157 g
52.469 4.559 263.316 376.719 re f
0.341176 0.431373 0.341176 rg
116.25 324 93.75 33.41 re f
192.75 304.5 93.75 56.297 re f
0.584314 0.733333 0.584314 rg
201.141 276.75 66.609 68.996 re f
1 1 0.00392157 rg
106.258 19.902 175.035 232.848 re f
0.984314 0.709804 0.654902 rg
114.887 258.625 35.863 17.691 re f
0.623529 0.780392 0.623529 rg
117.742 283.797 72.352 62.703 re f
1 0.00392157 0.239216 rg
77.473 214.508 75.141 38.992 re f
158.848 181.582 133.031 97.043 re f
0.984314 0.709804 0.654902 rg
253.094 253.363 26.664 25.652 re f
0.00392157 g
124.211 58.551 61.242 61.992 re f
200.141 55.863 60.328 62.797 re f
1 g
133.137 67.688 43.586 42.562 re f
207.945 65.113 43.793 42.887 re f
0 g
140.57 86.676 28.719 23.574 re f
217.371 84.262 24.938 23.738 re f
Q Q
showpage
%%Trailer
end
%%EOF
