<?xml version="1.0" encoding="UTF-8" standalone="no"?>
<!-- Created with Inkscape (http://www.inkscape.org/) -->

<svg
   xmlns:dc="http://purl.org/dc/elements/1.1/"
   xmlns:cc="http://creativecommons.org/ns#"
   xmlns:rdf="http://www.w3.org/1999/02/22-rdf-syntax-ns#"
   xmlns:svg="http://www.w3.org/2000/svg"
   xmlns="http://www.w3.org/2000/svg"
   xmlns:xlink="http://www.w3.org/1999/xlink"
   xmlns:sodipodi="http://sodipodi.sourceforge.net/DTD/sodipodi-0.dtd"
   xmlns:inkscape="http://www.inkscape.org/namespaces/inkscape"
   width="310mm"
   height="310mm"
   viewBox="0 0 310 310"
   version="1.1"
   id="svg8"
   inkscape:version="0.92.4 (5da689c313, 2019-01-14)"
   sodipodi:docname="i2prm-is.svg">
  <defs
     id="defs2">
    <linearGradient
       gradientUnits="userSpaceOnUse"
       y2="-46.542347"
       x2="81.73661"
       y1="22.45153"
       x1="82.095139"
       id="linearGradient858"
       xlink:href="#linearGradient856" />
    <linearGradient
       id="linearGradient856">
      <stop
         id="stop852"
         offset="0"
         style="stop-color:#cccccc;stop-opacity:1;" />
      <stop
         id="stop854"
         offset="1"
         style="stop-color:#cccccc;stop-opacity:0;" />
    </linearGradient>
    <linearGradient
       gradientUnits="userSpaceOnUse"
       y2="-46.542347"
       x2="81.73661"
       y1="22.45153"
       x1="82.095139"
       id="linearGradient858-5"
       xlink:href="#linearGradient856" />
    <linearGradient
       gradientUnits="userSpaceOnUse"
       y2="-46.542347"
       x2="81.73661"
       y1="22.45153"
       x1="82.095139"
       id="linearGradient858-3"
       xlink:href="#linearGradient856" />
    <linearGradient
       gradientUnits="userSpaceOnUse"
       y2="-46.542347"
       x2="81.73661"
       y1="22.45153"
       x1="82.095139"
       id="linearGradient858-3-2"
       xlink:href="#linearGradient856" />
    <linearGradient
       gradientUnits="userSpaceOnUse"
       y2="-46.542347"
       x2="81.73661"
       y1="22.45153"
       x1="82.095139"
       id="linearGradient858-3-2-3"
       xlink:href="#linearGradient856" />
    <linearGradient
       gradientUnits="userSpaceOnUse"
       y2="-46.542347"
       x2="81.73661"
       y1="22.45153"
       x1="82.095139"
       id="linearGradient858-3-2-1"
       xlink:href="#linearGradient856" />
    <linearGradient
       gradientUnits="userSpaceOnUse"
       y2="-46.542347"
       x2="81.73661"
       y1="22.45153"
       x1="82.095139"
       id="linearGradient858-3-2-1-7"
       xlink:href="#linearGradient856" />
    <linearGradient
       gradientUnits="userSpaceOnUse"
       y2="-46.542347"
       x2="81.73661"
       y1="22.45153"
       x1="82.095139"
       id="linearGradient858-3-2-1-7-6"
       xlink:href="#linearGradient856" />
    <linearGradient
       gradientUnits="userSpaceOnUse"
       y2="-46.542347"
       x2="81.73661"
       y1="22.45153"
       x1="82.095139"
       id="linearGradient858-3-2-1-7-1"
       xlink:href="#linearGradient856" />
    <linearGradient
       gradientUnits="userSpaceOnUse"
       y2="-46.542347"
       x2="81.73661"
       y1="22.45153"
       x1="82.095139"
       id="linearGradient858-3-2-1-7-61"
       xlink:href="#linearGradient856" />
    <linearGradient
       gradientUnits="userSpaceOnUse"
       y2="-46.542347"
       x2="81.73661"
       y1="22.45153"
       x1="82.095139"
       id="linearGradient858-3-2-1-7-11"
       xlink:href="#linearGradient856" />
    <linearGradient
       gradientUnits="userSpaceOnUse"
       y2="-46.542347"
       x2="81.73661"
       y1="22.45153"
       x1="82.095139"
       id="linearGradient858-3-2-1-7-5"
       xlink:href="#linearGradient856" />
  </defs>
  <sodipodi:namedview
     id="base"
     pagecolor="#ffffff"
     bordercolor="#666666"
     borderopacity="1.0"
     inkscape:pageopacity="0.0"
     inkscape:pageshadow="2"
     inkscape:zoom="0.34603402"
     inkscape:cx="511.39763"
     inkscape:cy="605.19944"
     inkscape:document-units="mm"
     inkscape:current-layer="layer1"
     showgrid="false"
     inkscape:window-width="1366"
     inkscape:window-height="693"
     inkscape:window-x="0"
     inkscape:window-y="27"
     inkscape:window-maximized="1" />
  <metadata
     id="metadata5">
    <rdf:RDF>
      <cc:Work
         rdf:about="">
        <dc:format>image/svg+xml</dc:format>
        <dc:type
           rdf:resource="http://purl.org/dc/dcmitype/StillImage" />
        <dc:title></dc:title>
      </cc:Work>
    </rdf:RDF>
  </metadata>
  <g
     inkscape:label="Ebene 1"
     inkscape:groupmode="layer"
     id="layer1"
     transform="translate(0,13)">
    <rect
       style="opacity:1;fill:#ffffff;fill-opacity:1;stroke:none;stroke-width:3.59362054;stroke-linecap:butt;stroke-linejoin:round;stroke-miterlimit:4;stroke-dasharray:none;stroke-dashoffset:0;stroke-opacity:1;paint-order:normal"
       id="rect952"
       width="301"
       height="301"
       x="4.5"
       y="-8.5"
       ry="12.310369" />
    <g
       id="g1531">
      <ellipse
         ry="40.000004"
         rx="40"
         cy="45.520996"
         cx="58.521"
         id="path815"
         style="opacity:1;fill:#576e57;fill-opacity:1;stroke:none;stroke-width:1.64419842;stroke-linecap:butt;stroke-linejoin:round;stroke-miterlimit:4;stroke-dasharray:none;stroke-dashoffset:0;stroke-opacity:1;paint-order:normal" />
    </g>
    <g
       id="g1525">
      <ellipse
         ry="40.000004"
         rx="40"
         cy="45.520996"
         cx="251.479"
         id="path815-3"
         style="opacity:1;fill:#ff013d;fill-opacity:1;stroke:none;stroke-width:1.6441983;stroke-linecap:butt;stroke-linejoin:round;stroke-miterlimit:4;stroke-dasharray:none;stroke-dashoffset:0;stroke-opacity:1;paint-order:normal" />
    </g>
    <g
       id="g1528">
      <ellipse
         ry="40.000004"
         rx="40"
         cy="238.47919"
         cx="155"
         id="path815-3-6"
         style="opacity:1;fill:#ffff01;fill-opacity:1;stroke:none;stroke-width:1.6441983;stroke-linecap:butt;stroke-linejoin:round;stroke-miterlimit:4;stroke-dasharray:none;stroke-dashoffset:0;stroke-opacity:1;paint-order:normal" />
    </g>
    <g
       id="g1477">
      <g
         id="layer1-7"
         transform="matrix(0.08280157,0,0,0.08280157,79.341771,101.24059)">
        <g
           id="g28395">
          <rect
             ry="0"
             y="82.86692"
             x="39.818779"
             height="118.26616"
             width="230.36244"
             id="rect815"
             style="opacity:1;fill:#f2f2f2;fill-opacity:1;stroke:#0d0d0d;stroke-width:2.50449324;stroke-linecap:butt;stroke-linejoin:round;stroke-miterlimit:4;stroke-dasharray:none;stroke-dashoffset:0;stroke-opacity:1;paint-order:normal" />
          <path
             transform="matrix(1.8966306,0,0,0.61828818,0.80426298,176.60985)"
             d="M 141.3871,38.955092 21.212554,38.450739 81.736608,-65.37129 Z"
             id="path819"
             style="opacity:1;fill:url(#linearGradient858);fill-opacity:1;stroke:#000000;stroke-width:2.49977779;stroke-linecap:butt;stroke-linejoin:round;stroke-miterlimit:4;stroke-dasharray:none;stroke-dashoffset:0;stroke-opacity:1;paint-order:normal"
             inkscape:connector-curvature="0" />
          <path
             transform="matrix(1.8966306,0,0,-0.61828818,0.80426298,107.41497)"
             d="M 141.3871,38.955092 21.212554,38.450739 81.736608,-65.37129 Z"
             id="path819-3"
             style="opacity:1;fill:#b3b3b3;fill-opacity:1;stroke:#0d0d0d;stroke-width:2.5;stroke-linecap:butt;stroke-linejoin:round;stroke-miterlimit:4;stroke-dasharray:none;stroke-dashoffset:0;stroke-opacity:1;paint-order:normal"
             inkscape:connector-curvature="0" />
        </g>
      </g>
      <ellipse
         ry="5.0000005"
         rx="5"
         cy="95.996437"
         cx="83.270592"
         id="path815-5"
         style="opacity:1;fill:#576e57;fill-opacity:1;stroke:none;stroke-width:0.20552482;stroke-linecap:butt;stroke-linejoin:round;stroke-miterlimit:4;stroke-dasharray:none;stroke-dashoffset:0;stroke-opacity:1;paint-order:normal" />
      <g
         id="layer1-7-9"
         transform="matrix(0.08280157,0,0,0.08280157,97.554728,138.02132)">
        <g
           id="g28395-1">
          <rect
             ry="0"
             y="82.86692"
             x="39.818779"
             height="118.26616"
             width="230.36244"
             id="rect815-2"
             style="opacity:1;fill:#f2f2f2;fill-opacity:1;stroke:#0d0d0d;stroke-width:2.50449324;stroke-linecap:butt;stroke-linejoin:round;stroke-miterlimit:4;stroke-dasharray:none;stroke-dashoffset:0;stroke-opacity:1;paint-order:normal" />
          <path
             transform="matrix(1.8966306,0,0,0.61828818,0.80426298,176.60985)"
             d="M 141.3871,38.955092 21.212554,38.450739 81.736608,-65.37129 Z"
             id="path819-7"
             style="opacity:1;fill:url(#linearGradient858-5);fill-opacity:1;stroke:#000000;stroke-width:2.49977779;stroke-linecap:butt;stroke-linejoin:round;stroke-miterlimit:4;stroke-dasharray:none;stroke-dashoffset:0;stroke-opacity:1;paint-order:normal"
             inkscape:connector-curvature="0" />
          <path
             transform="matrix(1.8966306,0,0,-0.61828818,0.80426298,107.41497)"
             d="M 141.3871,38.955092 21.212554,38.450739 81.736608,-65.37129 Z"
             id="path819-3-0"
             style="opacity:1;fill:#b3b3b3;fill-opacity:1;stroke:#0d0d0d;stroke-width:2.5;stroke-linecap:butt;stroke-linejoin:round;stroke-miterlimit:4;stroke-dasharray:none;stroke-dashoffset:0;stroke-opacity:1;paint-order:normal"
             inkscape:connector-curvature="0" />
        </g>
      </g>
      <ellipse
         ry="5.0000005"
         rx="5"
         cy="132.7771"
         cx="101.48354"
         id="path815-5-9"
         style="opacity:1;fill:#576e57;fill-opacity:1;stroke:none;stroke-width:0.20552483;stroke-linecap:butt;stroke-linejoin:round;stroke-miterlimit:4;stroke-dasharray:none;stroke-dashoffset:0;stroke-opacity:1;paint-order:normal" />
      <g
         id="layer1-7-6"
         transform="matrix(0.08280157,0,0,0.08280157,118.44712,172.46466)">
        <g
           id="g28395-2">
          <rect
             ry="0"
             y="82.86692"
             x="39.818779"
             height="118.26616"
             width="230.36244"
             id="rect815-6"
             style="opacity:1;fill:#f2f2f2;fill-opacity:1;stroke:#0d0d0d;stroke-width:2.50449324;stroke-linecap:butt;stroke-linejoin:round;stroke-miterlimit:4;stroke-dasharray:none;stroke-dashoffset:0;stroke-opacity:1;paint-order:normal" />
          <path
             transform="matrix(1.8966306,0,0,0.61828818,0.80426298,176.60985)"
             d="M 141.3871,38.955092 21.212554,38.450739 81.736608,-65.37129 Z"
             id="path819-1"
             style="opacity:1;fill:url(#linearGradient858-3);fill-opacity:1;stroke:#000000;stroke-width:2.49977779;stroke-linecap:butt;stroke-linejoin:round;stroke-miterlimit:4;stroke-dasharray:none;stroke-dashoffset:0;stroke-opacity:1;paint-order:normal"
             inkscape:connector-curvature="0" />
          <path
             transform="matrix(1.8966306,0,0,-0.61828818,0.80426298,107.41497)"
             d="M 141.3871,38.955092 21.212554,38.450739 81.736608,-65.37129 Z"
             id="path819-3-8"
             style="opacity:1;fill:#b3b3b3;fill-opacity:1;stroke:#0d0d0d;stroke-width:2.5;stroke-linecap:butt;stroke-linejoin:round;stroke-miterlimit:4;stroke-dasharray:none;stroke-dashoffset:0;stroke-opacity:1;paint-order:normal"
             inkscape:connector-curvature="0" />
        </g>
      </g>
      <ellipse
         ry="5.0000005"
         rx="5"
         cy="167.22046"
         cx="122.37591"
         id="path815-5-7"
         style="opacity:1;fill:#576e57;fill-opacity:1;stroke:none;stroke-width:0.20552483;stroke-linecap:butt;stroke-linejoin:round;stroke-miterlimit:4;stroke-dasharray:none;stroke-dashoffset:0;stroke-opacity:1;paint-order:normal" />
    </g>
    <g
       id="g1457">
      <ellipse
         ry="5"
         rx="4.9999995"
         cy="192.87021"
         cx="185.4789"
         id="path815-3-6-9"
         style="opacity:1;fill:#ffff01;fill-opacity:1;stroke:none;stroke-width:0.20552477;stroke-linecap:butt;stroke-linejoin:round;stroke-miterlimit:4;stroke-dasharray:none;stroke-dashoffset:0;stroke-opacity:1;paint-order:normal" />
      <g
         id="layer1-7-6-3"
         transform="matrix(0.08280157,0,0,0.08280157,183.31596,164.35892)">
        <g
           id="g28395-2-7">
          <rect
             ry="0"
             y="82.86692"
             x="39.818779"
             height="118.26616"
             width="230.36244"
             id="rect815-6-5"
             style="opacity:1;fill:#f2f2f2;fill-opacity:1;stroke:#0d0d0d;stroke-width:2.50449324;stroke-linecap:butt;stroke-linejoin:round;stroke-miterlimit:4;stroke-dasharray:none;stroke-dashoffset:0;stroke-opacity:1;paint-order:normal" />
          <path
             transform="matrix(1.8966306,0,0,0.61828818,0.80426298,176.60985)"
             d="M 141.3871,38.955092 21.212554,38.450739 81.736608,-65.37129 Z"
             id="path819-1-9"
             style="opacity:1;fill:url(#linearGradient858-3-2);fill-opacity:1;stroke:#000000;stroke-width:2.49977779;stroke-linecap:butt;stroke-linejoin:round;stroke-miterlimit:4;stroke-dasharray:none;stroke-dashoffset:0;stroke-opacity:1;paint-order:normal"
             inkscape:connector-curvature="0" />
          <path
             transform="matrix(1.8966306,0,0,-0.61828818,0.80426298,107.41497)"
             d="M 141.3871,38.955092 21.212554,38.450739 81.736608,-65.37129 Z"
             id="path819-3-8-2"
             style="opacity:1;fill:#b3b3b3;fill-opacity:1;stroke:#0d0d0d;stroke-width:2.5;stroke-linecap:butt;stroke-linejoin:round;stroke-miterlimit:4;stroke-dasharray:none;stroke-dashoffset:0;stroke-opacity:1;paint-order:normal"
             inkscape:connector-curvature="0" />
        </g>
      </g>
      <ellipse
         ry="5"
         rx="4.9999995"
         cy="156.3634"
         cx="202.93929"
         id="path815-3-6-9-0"
         style="opacity:1;fill:#ffff01;fill-opacity:1;stroke:none;stroke-width:0.20552477;stroke-linecap:butt;stroke-linejoin:round;stroke-miterlimit:4;stroke-dasharray:none;stroke-dashoffset:0;stroke-opacity:1;paint-order:normal" />
      <g
         id="layer1-7-6-3-6"
         transform="matrix(0.08280157,0,0,0.08280157,200.77634,127.85211)">
        <g
           id="g28395-2-7-3">
          <rect
             ry="0"
             y="82.86692"
             x="39.818779"
             height="118.26616"
             width="230.36244"
             id="rect815-6-5-2"
             style="opacity:1;fill:#f2f2f2;fill-opacity:1;stroke:#0d0d0d;stroke-width:2.50449324;stroke-linecap:butt;stroke-linejoin:round;stroke-miterlimit:4;stroke-dasharray:none;stroke-dashoffset:0;stroke-opacity:1;paint-order:normal" />
          <path
             transform="matrix(1.8966306,0,0,0.61828818,0.80426298,176.60985)"
             d="M 141.3871,38.955092 21.212554,38.450739 81.736608,-65.37129 Z"
             id="path819-1-9-0"
             style="opacity:1;fill:url(#linearGradient858-3-2-3);fill-opacity:1;stroke:#000000;stroke-width:2.49977779;stroke-linecap:butt;stroke-linejoin:round;stroke-miterlimit:4;stroke-dasharray:none;stroke-dashoffset:0;stroke-opacity:1;paint-order:normal"
             inkscape:connector-curvature="0" />
          <path
             transform="matrix(1.8966306,0,0,-0.61828818,0.80426298,107.41497)"
             d="M 141.3871,38.955092 21.212554,38.450739 81.736608,-65.37129 Z"
             id="path819-3-8-2-6"
             style="opacity:1;fill:#b3b3b3;fill-opacity:1;stroke:#0d0d0d;stroke-width:2.5;stroke-linecap:butt;stroke-linejoin:round;stroke-miterlimit:4;stroke-dasharray:none;stroke-dashoffset:0;stroke-opacity:1;paint-order:normal"
             inkscape:connector-curvature="0" />
        </g>
      </g>
      <ellipse
         ry="5"
         rx="4.9999995"
         cy="119.11008"
         cx="222.70636"
         id="path815-3-6-9-4"
         style="opacity:1;fill:#ffff01;fill-opacity:1;stroke:none;stroke-width:0.20552477;stroke-linecap:butt;stroke-linejoin:round;stroke-miterlimit:4;stroke-dasharray:none;stroke-dashoffset:0;stroke-opacity:1;paint-order:normal" />
      <g
         id="layer1-7-6-3-7"
         transform="matrix(0.08280157,0,0,0.08280157,220.54342,90.598773)">
        <g
           id="g28395-2-7-6">
          <rect
             ry="0"
             y="82.86692"
             x="39.818779"
             height="118.26616"
             width="230.36244"
             id="rect815-6-5-5"
             style="opacity:1;fill:#f2f2f2;fill-opacity:1;stroke:#0d0d0d;stroke-width:2.50449324;stroke-linecap:butt;stroke-linejoin:round;stroke-miterlimit:4;stroke-dasharray:none;stroke-dashoffset:0;stroke-opacity:1;paint-order:normal" />
          <path
             transform="matrix(1.8966306,0,0,0.61828818,0.80426298,176.60985)"
             d="M 141.3871,38.955092 21.212554,38.450739 81.736608,-65.37129 Z"
             id="path819-1-9-6"
             style="opacity:1;fill:url(#linearGradient858-3-2-1);fill-opacity:1;stroke:#000000;stroke-width:2.49977779;stroke-linecap:butt;stroke-linejoin:round;stroke-miterlimit:4;stroke-dasharray:none;stroke-dashoffset:0;stroke-opacity:1;paint-order:normal"
             inkscape:connector-curvature="0" />
          <path
             transform="matrix(1.8966306,0,0,-0.61828818,0.80426298,107.41497)"
             d="M 141.3871,38.955092 21.212554,38.450739 81.736608,-65.37129 Z"
             id="path819-3-8-2-9"
             style="opacity:1;fill:#b3b3b3;fill-opacity:1;stroke:#0d0d0d;stroke-width:2.5;stroke-linecap:butt;stroke-linejoin:round;stroke-miterlimit:4;stroke-dasharray:none;stroke-dashoffset:0;stroke-opacity:1;paint-order:normal"
             inkscape:connector-curvature="0" />
        </g>
      </g>
    </g>
    <g
       id="g1437">
      <ellipse
         ry="5"
         rx="4.9999995"
         cy="48.695999"
         cx="200.45323"
         id="path815-3-3"
         style="opacity:1;fill:#ff013d;fill-opacity:1;stroke:none;stroke-width:0.20552477;stroke-linecap:butt;stroke-linejoin:round;stroke-miterlimit:4;stroke-dasharray:none;stroke-dashoffset:0;stroke-opacity:1;paint-order:normal" />
      <g
         id="layer1-7-6-3-7-2"
         transform="matrix(0.08280157,0,0,0.08280157,169.93565,29.593341)">
        <g
           id="g28395-2-7-6-5">
          <rect
             ry="0"
             y="82.86692"
             x="39.818779"
             height="118.26616"
             width="230.36244"
             id="rect815-6-5-5-4"
             style="opacity:1;fill:#f2f2f2;fill-opacity:1;stroke:#0d0d0d;stroke-width:2.50449324;stroke-linecap:butt;stroke-linejoin:round;stroke-miterlimit:4;stroke-dasharray:none;stroke-dashoffset:0;stroke-opacity:1;paint-order:normal" />
          <path
             transform="matrix(1.8966306,0,0,0.61828818,0.80426298,176.60985)"
             d="M 141.3871,38.955092 21.212554,38.450739 81.736608,-65.37129 Z"
             id="path819-1-9-6-7"
             style="opacity:1;fill:url(#linearGradient858-3-2-1-7);fill-opacity:1;stroke:#000000;stroke-width:2.49977779;stroke-linecap:butt;stroke-linejoin:round;stroke-miterlimit:4;stroke-dasharray:none;stroke-dashoffset:0;stroke-opacity:1;paint-order:normal"
             inkscape:connector-curvature="0" />
          <path
             transform="matrix(1.8966306,0,0,-0.61828818,0.80426298,107.41497)"
             d="M 141.3871,38.955092 21.212554,38.450739 81.736608,-65.37129 Z"
             id="path819-3-8-2-9-4"
             style="opacity:1;fill:#b3b3b3;fill-opacity:1;stroke:#0d0d0d;stroke-width:2.5;stroke-linecap:butt;stroke-linejoin:round;stroke-miterlimit:4;stroke-dasharray:none;stroke-dashoffset:0;stroke-opacity:1;paint-order:normal"
             inkscape:connector-curvature="0" />
        </g>
      </g>
      <ellipse
         ry="5"
         rx="4.9999995"
         cy="50.410503"
         cx="165.56429"
         id="path815-3-3-7"
         style="opacity:1;fill:#ff013d;fill-opacity:1;stroke:none;stroke-width:0.20552477;stroke-linecap:butt;stroke-linejoin:round;stroke-miterlimit:4;stroke-dasharray:none;stroke-dashoffset:0;stroke-opacity:1;paint-order:normal" />
      <g
         id="layer1-7-6-3-7-2-7"
         transform="matrix(0.08280157,0,0,0.08280157,135.57592,29.593341)">
        <g
           id="g28395-2-7-6-5-6">
          <rect
             ry="0"
             y="82.86692"
             x="39.818779"
             height="118.26616"
             width="230.36244"
             id="rect815-6-5-5-4-7"
             style="opacity:1;fill:#f2f2f2;fill-opacity:1;stroke:#0d0d0d;stroke-width:2.50449324;stroke-linecap:butt;stroke-linejoin:round;stroke-miterlimit:4;stroke-dasharray:none;stroke-dashoffset:0;stroke-opacity:1;paint-order:normal" />
          <path
             transform="matrix(1.8966306,0,0,0.61828818,0.80426298,176.60985)"
             d="M 141.3871,38.955092 21.212554,38.450739 81.736608,-65.37129 Z"
             id="path819-1-9-6-7-3"
             style="opacity:1;fill:url(#linearGradient858-3-2-1-7-11);fill-opacity:1;stroke:#000000;stroke-width:2.49977779;stroke-linecap:butt;stroke-linejoin:round;stroke-miterlimit:4;stroke-dasharray:none;stroke-dashoffset:0;stroke-opacity:1;paint-order:normal"
             inkscape:connector-curvature="0" />
          <path
             transform="matrix(1.8966306,0,0,-0.61828818,0.80426298,107.41497)"
             d="M 141.3871,38.955092 21.212554,38.450739 81.736608,-65.37129 Z"
             id="path819-3-8-2-9-4-6"
             style="opacity:1;fill:#b3b3b3;fill-opacity:1;stroke:#0d0d0d;stroke-width:2.5;stroke-linecap:butt;stroke-linejoin:round;stroke-miterlimit:4;stroke-dasharray:none;stroke-dashoffset:0;stroke-opacity:1;paint-order:normal"
             inkscape:connector-curvature="0" />
        </g>
      </g>
      <ellipse
         ry="5"
         rx="4.9999995"
         cy="50.410503"
         cx="131.77409"
         id="path815-3-3-9"
         style="opacity:1;fill:#ff013d;fill-opacity:1;stroke:none;stroke-width:0.20552477;stroke-linecap:butt;stroke-linejoin:round;stroke-miterlimit:4;stroke-dasharray:none;stroke-dashoffset:0;stroke-opacity:1;paint-order:normal" />
      <g
         id="layer1-7-6-3-7-2-4"
         transform="matrix(0.08280157,0,0,0.08280157,100.72735,29.593341)">
        <g
           id="g28395-2-7-6-5-8">
          <rect
             ry="0"
             y="82.86692"
             x="39.818779"
             height="118.26616"
             width="230.36244"
             id="rect815-6-5-5-4-1"
             style="opacity:1;fill:#f2f2f2;fill-opacity:1;stroke:#0d0d0d;stroke-width:2.50449324;stroke-linecap:butt;stroke-linejoin:round;stroke-miterlimit:4;stroke-dasharray:none;stroke-dashoffset:0;stroke-opacity:1;paint-order:normal" />
          <path
             transform="matrix(1.8966306,0,0,0.61828818,0.80426298,176.60985)"
             d="M 141.3871,38.955092 21.212554,38.450739 81.736608,-65.37129 Z"
             id="path819-1-9-6-7-2"
             style="opacity:1;fill:url(#linearGradient858-3-2-1-7-5);fill-opacity:1;stroke:#000000;stroke-width:2.49977779;stroke-linecap:butt;stroke-linejoin:round;stroke-miterlimit:4;stroke-dasharray:none;stroke-dashoffset:0;stroke-opacity:1;paint-order:normal"
             inkscape:connector-curvature="0" />
          <path
             transform="matrix(1.8966306,0,0,-0.61828818,0.80426298,107.41497)"
             d="M 141.3871,38.955092 21.212554,38.450739 81.736608,-65.37129 Z"
             id="path819-3-8-2-9-4-9"
             style="opacity:1;fill:#b3b3b3;fill-opacity:1;stroke:#0d0d0d;stroke-width:2.5;stroke-linecap:butt;stroke-linejoin:round;stroke-miterlimit:4;stroke-dasharray:none;stroke-dashoffset:0;stroke-opacity:1;paint-order:normal"
             inkscape:connector-curvature="0" />
        </g>
      </g>
    </g>
    <ellipse
       style="opacity:1;fill:#576e57;fill-opacity:1;stroke:none;stroke-width:0.61657447;stroke-linecap:butt;stroke-linejoin:round;stroke-miterlimit:4;stroke-dasharray:none;stroke-dashoffset:0;stroke-opacity:1;paint-order:normal"
       id="path815-39"
       cx="155"
       cy="238.47919"
       rx="15"
       ry="15.000002" />
    <ellipse
       style="opacity:1;fill:#ffff01;fill-opacity:1;stroke:none;stroke-width:0.61657435;stroke-linecap:butt;stroke-linejoin:round;stroke-miterlimit:4;stroke-dasharray:none;stroke-dashoffset:0;stroke-opacity:1;paint-order:normal"
       id="path815-3-6-0"
       cx="251.479"
       cy="45.520996"
       rx="15"
       ry="15.000001" />
    <ellipse
       style="opacity:1;fill:#ff013d;fill-opacity:1;stroke:none;stroke-width:0.61657435;stroke-linecap:butt;stroke-linejoin:round;stroke-miterlimit:4;stroke-dasharray:none;stroke-dashoffset:0;stroke-opacity:1;paint-order:normal"
       id="path815-3-8"
       cx="58.521"
       cy="45.520996"
       rx="15"
       ry="15.000002" />
  </g>
</svg>
